<?xml version="1.0" encoding="UTF-8" ?>

<svg version="1.1"
  height="512"
  width="512"
  viewBox="-30 -100 570 570"
  xmlns="http://www.w3.org/2000/svg">
    <rect fill="#111" x="-30" y="-100" width="570" height="570" />
    <path fill="#fff" d="M261 .5L157.54 168.621H261zm0 0"/>
    <path fill="#fff" d="M259 .5v168.121h103.46zm0 0M496.98 198.617H15.016c-12.348 0-19.399 14.133-12 24L99.41 351.148c2.832 3.778 7.278 6 12 6h289.18c4.719 0 9.164-2.222 11.996-6l96.394-128.53c7.407-9.88.332-24-12-24zm0 0"/>
</svg>
